expand_the_dark_world = {
	cost = 200

	effect = { custom_tooltip = expand_the_dark_world_effect_tt hidden_effect = { add_or_extend_ruler_modifier = { name = expand_the_dark_world_mod duration = 7300 } } }

	modifier = { tolerance_heretic = -3 }

	ai_will_do = { factor = 15 }
}

wisdom_beyond_honor = {
	cost = 200

	potential = { has_country_flag = devouring_powerful_mage_unlocked }

	effect = {
		if = {
			limit = { ruler_has_personality = mage_personality }
			custom_tooltip = wisdom_beyond_honor_effect_2_tt
		}
		else = {
			custom_tooltip = wisdom_beyond_honor_effect_tt
		}
		hidden_effect = { country_event = { id = spirits.605 } }
	}

	modifier = { war_exhaustion = 0.1 }

	ai_will_do = { factor = 15 }
}

barter_with_dark_spirits = {
	cost = 200

	potential = { has_country_flag = devouring_skill_increase_unlocked }

	effect = {
		if = {
			limit = {
				adm = 6
				dip = 6
				mil = 6
			}
			custom_tooltip = barter_with_dark_spirits_effect_2_tt
		}
		else = {
			custom_tooltip = barter_with_dark_spirits_effect_tt
		}
		hidden_effect = {
			if = {
				limit = {
					adm = 6
					dip = 6
					mil = 6
				}
				random_list = {
					1 = { add_adm_power = 100 }
					1 = { add_dip_power = 100 }
					1 = { add_mil_power = 100 }
				}
			}
			else = {
				random_list = {
					1 = {
						trigger = { NOT = { adm = 6 } }
						change_adm = 1
					}
					1 = {
						trigger = { NOT = { dip = 6 } }
						change_dip = 1
					}
					1 = {
						trigger = { NOT = { mil = 6 } }
						change_mil = 1
					}
				}
			}
			add_or_extend_ruler_modifier = { name = dvp_devoured_mod duration = 1825 }
		}
	}

	modifier = { land_morale = -0.1 }

	ai_will_do = { factor = 15 }
}

witches_and_shamans_preview = {
	cost = 200
	potential = {
		NOT = {
			num_of_aspects = 1
			has_country_flag = witches_and_shamans_banned
		}
	}

	effect = {
		custom_tooltip = devouring_path_need_one_aspect_tt
		hidden_effect = {
			remove_church_aspect = witches_and_shamans_preview
			country_event = { id = spirits.607 }
		}
	}

	modifier = { stability_cost_modifier = 0.2 }

	ai_will_do = { factor = 0 }
}

witches_and_shamans = {
	cost = 200
	potential = {
		num_of_aspects = 1
		NOT = { has_country_flag = witches_and_shamans_banned }
	}

	effect = {
		custom_tooltip = witches_and_shamans_effect_tt
		hidden_effect = {
			reduce_stability_or_adm_power = yes
			create_war_wizard_effect = yes
		}
	}

	modifier = { stability_cost_modifier = 0.2 }

	ai_will_do = { factor = 15 }
}

advocation_of_chi_stealers = {
	cost = 200

	potential = {
		has_country_flag = devouring_life_extension_unlocked
		NOT = { has_ruler_flag = is_a_lich }
		NOT = { has_ruler_flag = is_a_vampire } #Its pointless if you go lich or vampire
		NOT = { has_ruler_flag = dvp_life_extension_5 }
	}

	effect = {
		if = {
			limit = { has_ruler_flag = dvp_life_extension_4 }
			clr_ruler_flag = dvp_life_extension_4
			set_ruler_flag = dvp_life_extension_5
			custom_tooltip = lifeExtension5_tt
		}
		else_if = {
			limit = { has_ruler_flag = dvp_life_extension_3 }
			clr_ruler_flag = dvp_life_extension_3
			set_ruler_flag = dvp_life_extension_4
			custom_tooltip = lifeExtension4_tt
		}
		else_if = {
			limit = { has_ruler_flag = dvp_life_extension_2 }
			clr_ruler_flag = dvp_life_extension_2
			set_ruler_flag = dvp_life_extension_3
			custom_tooltip = lifeExtension3_tt
		}
		else_if = {
			limit = { OR = { has_ruler_flag = dvp_life_extension_1 fast_ruler_is_harimari = yes fast_ruler_is_kobold = yes } }
			clr_ruler_flag = dvp_life_extension_1
			set_ruler_flag = long_lived_ruler
			set_ruler_flag = dvp_life_extension_2
			set_ruler_flag = devouring_life_extension
			custom_tooltip = lifeExtension2_tt
		}
		else = {
			set_ruler_flag = long_lived_ruler
			set_ruler_flag = dvp_life_extension_1
			set_ruler_flag = devouring_life_extension
			custom_tooltip = lifeExtension1_tt
		}
		hidden_effect = { add_or_extend_ruler_modifier = { name = dvp_devoured_mod duration = 1825 } }
	}

	modifier = { manpower_recovery_speed = -0.15 }

	ai_will_do = { factor = 15 }
}

from_beyond_preview = {
	cost = 200
	potential = { NOT = { num_of_aspects = 1 } }

	effect = {
		custom_tooltip = devouring_path_need_one_aspect_tt
		hidden_effect = {
			remove_church_aspect = from_beyond_preview
			country_event = { id = spirits.607 }
		}
	}

	modifier = { global_monthly_devastation = 0.05 }

	ai_will_do = { factor = 0 }
}

from_beyond = {
	cost = 200
	potential = { num_of_aspects = 1 }

	effect = { set_country_flag = devouring_path_damestear_bypass_flag country_event = { id = damestear.4 } }

	modifier = { global_monthly_devastation = 0.08 }

	ai_will_do = { factor = 15 }
}

chroniclers_of_secret_histories = {
	cost = 200

	effect = { custom_tooltip = chroniclers_of_secret_histories_effect_tt hidden_effect = { add_or_extend_ruler_modifier = { name = chroniclers_of_secret_histories_mod duration = 7300 } } }

	modifier = { global_unrest = 2 }

	ai_will_do = { factor = 15 }
}

gifts_for_fools = {
	cost = 200

	effect = { custom_tooltip = gifts_for_fools_effect_tt hidden_effect = { add_or_extend_ruler_modifier = { name = gifts_for_fools_mod duration = 7300 } } }

	modifier = { yearly_corruption = 0.1 }

	ai_will_do = { factor = 15 }
}

to_devour_chi_preview = {
	cost = 200
	potential = {
		NOT = {
			num_of_aspects = 1
			has_country_flag = to_devour_chi_locked
		}
	}

	effect = {
		custom_tooltip = devouring_path_need_one_aspect_tt
		hidden_effect = {
			remove_church_aspect = to_devour_chi_preview
			country_event = { id = spirits.607 }
		}
	}

	modifier = {
		legitimacy = -1
		devotion = -1
		horde_unity = -1
		meritocracy = -0.5
		republican_tradition = -0.5
	}

	ai_will_do = { factor = 0 }
}

to_devour_chi = {
	cost = 200
	potential = {
		num_of_aspects = 1
		NOT = { has_country_flag = to_devour_chi_locked }
	}

	effect = {
		if = {
			limit = { NOT = { has_country_flag = devouring_temple_secrets } }
			custom_tooltip = to_devour_chi_effect_tt
			set_country_flag = devouring_temple_secrets
			hidden_effect = { country_event = { id = spirits.606 } }
		}
		else = {
			custom_tooltip = to_devour_chi_effect_2_tt
			hidden_effect = {
				random_list = {
					1 = {
						trigger = { NOT = { tag = Y01 has_country_flag = devouring_life_extension_unlocked } }
						set_country_flag = devouring_life_extension_unlocked
					}
					1 = {
						trigger = { NOT = { has_country_flag = devouring_powerful_mage_unlocked } }
						set_country_flag = devouring_powerful_mage_unlocked
					}
					1 = {
						trigger = { NOT = { has_country_flag = devouring_skill_increase_unlocked } }
						set_country_flag = devouring_skill_increase_unlocked
					}
				}
				add_or_extend_ruler_modifier = { name = dvp_devoured_mod duration = 1825 }
			}
		}
		hidden_effect = {
			if = {
				limit = {
					has_country_flag = devouring_powerful_mage_unlocked
					has_country_flag = devouring_skill_increase_unlocked
					OR = {
						tag = Y01
						AND = {
							has_country_flag = devouring_temple_secrets
							has_country_flag = devouring_life_extension_unlocked
						}
					}
				}
				set_country_flag = to_devour_chi_locked
			}
		}
	}

	modifier = {
		legitimacy = -1
		devotion = -1
		horde_unity = -1
		meritocracy = -0.5
		republican_tradition = -0.5
	}

	ai_will_do = { factor = 150 }
}

gunpowder_meditation = {	#Snorting a mixture of gunpowder and illegal stuff
	cost = 200

	potential = { has_country_flag = gunpowder_meditation_unlocked }

	effect = { custom_tooltip = gunpowder_meditation_effect_tt hidden_effect = { add_or_extend_ruler_modifier = { name = gunpowder_meditation_mod duration = 7300 } } }

	modifier = { shock_damage_received = 0.1 }

	ai_will_do = { factor = 15 }
}

demon_warriors = {	#Trained by Oni
	cost = 200

	potential = {
		has_country_flag = demon_warriors_unlocked
		NOT = { mission_completed = Y01_demon_warriors }
	}

	effect = { custom_tooltip = demon_warriors_effect_tt hidden_effect = { add_or_extend_ruler_modifier = { name = demon_warriors_mod duration = 7300 } } }

	modifier = { reinforce_cost_modifier = 0.2 }

	ai_will_do = { factor = 15 }
}

oni_demon_warriors = { #better version of above, unlocked in Azjakuma mt
	cost = 200

	potential = { mission_completed = Y01_demon_warriors }

	effect = { custom_tooltip = oni_demon_warriors_effect_tt hidden_effect = { add_or_extend_ruler_modifier = { name = oni_demon_warriors_mod duration = 7300 } } }

	modifier = { reinforce_cost_modifier = 0.3 }

	ai_will_do = { factor = 15 }
}

the_god_eaters = {
	cost = 200

	potential = { has_country_flag = the_god_eaters_unlocked }

	effect = { custom_tooltip = the_god_eaters_effect_tt hidden_effect = { add_or_extend_ruler_modifier = { name = the_god_eaters_mod duration = 7300 } } }

	modifier = { prestige_per_development_from_conversion = -0.15 }

	ai_will_do = { factor = 15 }
}

the_dead_serve_the_living_preview = {
	cost = 200

	potential = {
		has_country_flag = the_dead_serve_the_living_unlocked
		NOT = { num_of_aspects = 1 }
	}

	effect = {
		custom_tooltip = devouring_path_need_one_aspect_tt
		hidden_effect = {
			remove_church_aspect = the_dead_serve_the_living_preview
			country_event = { id = spirits.607 }
		}
	}

	modifier = { movement_speed = -0.2 }

	ai_will_do = { factor = 0 }
}

the_dead_serve_the_living = {
	cost = 200

	potential = {
		has_country_flag = the_dead_serve_the_living_unlocked
		num_of_aspects = 1
	}

	effect = {
		if = { #Gets you a proper tooltip this way
			limit = { has_country_modifier = slackening_modifier }
			add_yearly_manpower = 1.5
		}
		else = {
			add_yearly_manpower = 3
		}
	}

	modifier = { movement_speed = -0.2 }

	ai_will_do = { factor = 15 }
}

way_of_shadows = {
	cost = 200

	potential = {
		OR = {
			has_country_flag = way_of_shadows_unlocked
			mission_completed = ying_best_things
		}
	}

	effect = { custom_tooltip = way_of_shadows_effect_tt hidden_effect = { add_or_extend_ruler_modifier = { name = way_of_shadows_mod duration = 7300 } } }

	modifier = { improve_relation_modifier = -0.33 }

	ai_will_do = { factor = 15 }
}

means_to_an_end = {
	cost = 200

	potential = { has_country_flag = means_to_an_end_unlocked }

	effect = { custom_tooltip = means_to_an_end_effect_tt hidden_effect = { add_or_extend_ruler_modifier = { name = means_to_an_end_mod duration = 7300 } } }

	modifier = { unjustified_demands = 0.2 }

	ai_will_do = { factor = 15 }
}

above_spirits_and_man = {
	cost = 200

	potential = { has_country_flag = above_spirits_and_man_unlocked }

	effect = { custom_tooltip = above_spirits_and_man_effect_tt hidden_effect = { add_or_extend_ruler_modifier = { name = above_spirits_and_man_mod duration = 7300 } } }

	modifier = { overextension_impact_modifier = 0.2 }

	ai_will_do = { factor = 15 }
}

tether_the_weak = {
	cost = 200

	potential = { has_country_flag = tether_the_weak_unlocked }

	effect = { custom_tooltip = tether_the_weak_effect_tt hidden_effect = { add_or_extend_ruler_modifier = { name = tether_the_weak_mod duration = 7300 } } }

	modifier = { reinforce_speed = -0.2 }

	ai_will_do = { factor = 15 }
}

bleed_haless_dry = {
	cost = 200

	potential = { has_country_flag = bleed_haless_dry_unlocked }

	effect = { custom_tooltip = bleed_haless_dry_effect_tt hidden_effect = { add_or_extend_ruler_modifier = { name = bleed_haless_dry_mod duration = 7300 } } }

	modifier = { global_trade_power = -0.3 }

	ai_will_do = { factor = 15 }
}