estate_burghers = {
	icon = 3

	# If true, country will get estate
	trigger = {	
		NOT = { has_government_attribute = disables_estate_burghers }
		NOT = { has_country_flag = disables_estate_burghers_flag }
		OR = {
			has_government_attribute = enables_estate_burghers
			has_country_flag = enables_estate_burghers_flag
			AND = {
				NOT = { has_government_attribute = disables_regular_estates } #Anbennar
				#NOT = { has_government_attribute = is_pirate_republic_reform }
				#NOT = { is_revolutionary_republic_trigger = yes }
				#NOT = { has_reform = cossacks_reform }
				NOT = { government = native }
				NOT = { has_reform = siberian_tribe }
				is_nomad = no
				is_colonial_nation = no
				#NOT = { has_reform = revolutionary_empire_reform }
				#NOT = { has_estate = estate_vaisyas }
				#NOT = { has_estate = estate_jains }
				#Anbennar
				# NOT = { has_country_modifier = anti_cartel_policies }
				#Raheni cultures have castes, if they have the correct flag (set in history files):
				NOT = { has_country_flag = has_caste_estates }
				is_monstrous_horde = no
			}
		}
		NOT = { has_estate = estate_castonath_patricians }
		#NOT = { has_government_attribute = is_merchant_republic }
		#NOT = { has_reform = veche_republic }
		#NOT = { has_reform = trading_city }
		#OR = {
		#	NOT = { is_emperor_of_china = yes }
		#	has_dlc = "Mandate of Heaven"
		#}


		# OR = {
			# has_reform = feiten_silken_jellyfish_council
			# NOT = { has_government_attribute = is_merchant_republic }
		# }
	}

	# These scale with loyalty & power
	country_modifier_happy = {
		trade_efficiency = 0.2
		development_cost = -0.1
	}
	country_modifier_neutral = {
		trade_efficiency = 0.2
	}	
	country_modifier_angry = {
		trade_efficiency = -0.1
		development_cost = 0.1
		global_unrest = 2
	}
	land_ownership_modifier = {
		burghers_loyalty_modifier = 0.2
	}
	
	province_independence_weight = {
		factor = 1
		modifier = {
			factor = 0.1
			NOT = { development = 5 }
		}
		modifier = {
			factor = 0.5
			OR = {
				NOT = { development = 10 }
				NOT = { province_trade_power = 5 }
			}
		}
		modifier = {
			factor = 2
			development = 20
		}
		modifier = {
			factor = 0.5
			is_territorial_core = owner
		}
		modifier = {
			factor = 1.5
			province_trade_power = 10
		}
		modifier = {
			factor = 1.5
			province_trade_power = 20
		}
		modifier = {
			factor = 1.5
			has_province_modifier = thankful_guilds
		}
		modifier = {
			factor = 10
			OR = {
				has_terrain = city_terrain
				has_terrain = dwarven_hold
				has_terrain = dwarven_hold_surface
			}

		}
	}

	# Influence modifiers
	base_influence = 10
	influence_modifier = {	
		desc = EST_VAMPIRIC_LORD
		trigger = {
			has_estate_privilege = estate_vampires_organization_vampires_lord
		}
		influence = -10
	}
	influence_modifier = {
		desc = EST_HIGH_DEVELOPMENT_PROVINCE
		trigger = {
			any_owned_province = {
				development = 30
			}
		}
		influence = 5
	}
	influence_modifier = {	
		desc = EST_VAL_COT
		trigger = {
			NOT = { has_reform = free_city }
			any_owned_province = {
				province_has_center_of_trade_of_level = 1
			}
		}
		influence = 5
	}
	#Anbennar
	# influence_modifier = {
	# 	desc = EST_VAL_HANSEATIC_CITY
	# 	trigger = {
	# 		NOT = { has_reform = free_city }
	# 		OR = {
	# 			capital = 1 #Stockholm
	# 			capital = 6 #Sk?ne
	# 			capital = 23 #Bergen
	# 			capital = 36 #Reval
	# 			capital = 38 #Riga
	# 			capital = 41 #K?nigsberg
	# 			capital = 43 #Danzig
	# 			capital = 44 #Hamburg
	# 			capital = 45 #Lubeck
	# 			capital = 46 #Wismar
	# 			capital = 47 #Stralsund
	# 			capital = 52 #Magdeburg
	# 			capital = 53 #Luneburg
	# 			capital = 54 #Stade
	# 			capital = 56 #Osnabruck
	# 			capital = 57 #Brunswick
	# 			capital = 85 #K?ln
	# 			capital = 86 #Munster
	# 			capital = 90 #Bruges
	# 			capital = 100 #Groningen
	# 			capital = 236 #London
	# 			capital = 238 #Ipswich
	# 			capital = 274 #Pskov
	# 			capital = 275 #Polotsk
	# 			capital = 310 #Novgorod
	# 			capital = 1744 # Antwerp
	# 			capital = 1834 # Dorpat
	# 			capital = 1858 # Stettin
	# 			capital = 1859 # Torun
	# 			capital = 1860 # Bishop's Lynn
	# 			capital = 1874 # Bremen
	# 			capital = 1936 # Kaunas
	# 			capital = 2994 # Greifswald
	# 			capital = 2995 # Stolp
	# 		}
	# 	}
	# 	influence = 5
	# }
	#Anbennar
	# influence_modifier = {
	# 	desc = EST_VAL_EAST_AFRICAN_TRADE_CITIES
	# 	trigger = {
	# 		capital_scope = {
	# 			OR = {
	# 				area = central_swahili_coast_area
	# 				area = mombasa_area
	# 				area = mozambique_area
	# 				area = northern_swahili_coast_area
	# 				area = mogadishu_area
	# 			}
	# 		}
	# 	}
	# 	influence = 5
	# }
	influence_modifier = {
		desc = EST_VAL_LOW_TRADE_INCOME
		trigger = {
			NOT = { trade_income_percentage = 0.25 }
		}	
		influence = -5
	}
	influence_modifier = {
		desc = EST_VAL_HIGH_TRADE_INCOME
		trigger = {
			trade_income_percentage = 0.5
			NOT = { trade_income_percentage = 0.75 }
		}	
		influence = 5
	}
	influence_modifier = {
		desc = EST_VAL_VERY_HIGH_TRADE_INCOME
		trigger = {
			trade_income_percentage = 0.75
		}	
		influence = 10
	}
	influence_modifier = {
		desc = EST_VAL_OTHER_ESTATE_IN_POWER
		trigger = {
			has_any_estate_disaster_active = yes
			has_not_own_estate_disaster_active = { estate = estate_burghers }
		}	
		influence = -40
	}
	
	loyalty_modifier = {
		desc = EST_VAL_OTHER_ESTATE_IN_POWER_LOY
		trigger = {
			has_any_estate_disaster_active = yes
			has_not_own_estate_disaster_active = { estate = estate_burghers }
		}
		loyalty = -20
	}

	#Custom Names
	#Note, these are applied from top to bottom.

	custom_name = {
		desc = estate_magnates
		trigger = {
			OR = {
				AND = {
					culture_group = alenic
					NOT = {
						primary_culture = wexonard
						primary_culture = marrodic
					}
				}
				culture_group = gerudian
				culture_group = reachman
				primary_culture = city_goblin
			}
		}
	}
	custom_name = {
		desc = estate_malartak
		trigger = {
			culture_group = eordan_ruinborn_elf
		}
	}
	custom_name = {
		desc = estate_sgc
		trigger = {
			tag = H78
			has_country_flag = sgc_created
		}
	}

	custom_name = {
		desc = baashidi_estate_house_of_wealth
		trigger = {
			culture_group = baashidi
		}
	}

	custom_name = {
		desc = inyaswarosa_leopard_lodge
		trigger = {
			OR = {
				culture = kombedak
				culture = umsozidak
				culture = wakoodak
				tag = S83 #Katidariga, cyazizeta by default
			}
		}
	}
	custom_name = {
			desc = estate_procurers
			trigger = {
				tag = A77
			}
		}

	custom_name = {
		desc = antmvura_17_families
		trigger = {
			culture = antmvura
		}
	}

	custom_name = {
		desc = estate_gor_burad_steam_barons
		trigger = {
			tag = I16
			has_country_flag = gor_burad_steam_barons_formed
		}
	}
	
	custom_name = {
		desc = estate_cartels
		trigger = {
			culture_group = dwarven
			OR = {
				has_country_flag = adventurer_derived_government
				capital_scope = { NOT = { continent = serpentspine } }
			}
		}
	}

	custom_name = {
		desc = estate_dealers
		trigger = {
			tag = I98
		}
	}

	custom_name = { 
		desc = estate_kartels 
		trigger = { 
			OR = { 
				culture_group = goblin 
				has_country_flag = karakhanbar_cartels 
			} 
		} 
	}

	custom_name = { #Mengi traders
		desc = estate_mengi_nagide
		trigger = {
			culture_group = mengi
		}
	}

	custom_name = {
		desc = estate_veykodan_burghers
		trigger = {
			culture = veykodan
		}
	}

	custom_name = { #Arg-Ordstun
		desc = estate_lapidary_guilds
		trigger = {
			OR = {
				tag = H76
				was_tag = H76
			}
		}
	}
	#Anbennar
	# custom_name = {
		# desc = estate_bourgeoisie
		# trigger = {
			# culture_group = french
		# }
	# }
	# custom_name = {
		# desc = estate_shangbang
		# trigger = {
			# culture_group = east_asian
		# }
	# }
	# custom_name = {
		# desc = estate_neoconfucian_reformers
		# trigger = {
			# tag = KOR
			# religion = confucianism
		# }
	# }
	#Mulen
	custom_name = {
		desc = estate_merchant_matriarchs
		trigger = {
			OR = {
				was_tag = F50
				tag = F50
			}
			has_country_modifier = harpy_administration
			has_country_flag = merchant_matriarchs_enabled
		}
	}
	#Bosancovac
	custom_name = {
		desc = estate_bosancovac_patricians
		trigger = {
			OR = {
				was_tag = G33
				tag = G33
			}
			has_country_flag = bosancovac_patricians_enabled
		}
	}
	custom_name = {
		desc = estate_sabari
		trigger = {
			or = {
				culture_group = bulwari
				culture = sun_elf
				culture = dawn_elf
				culture = desert_elf
				culture = zanlibi
			}
		}
	}

	custom_desc = {
		desc = estate_sabari_desc
		trigger = {
			or = {
				culture_group = bulwari
				culture = sun_elf
				culture = dawn_elf
				culture = desert_elf
				culture = zanlibi
			}
		}
	}
	custom_name = {
		desc = estate_harpy_merchants
		trigger = {
			or = {
				culture = firanyan_harpy
				culture = siadunan_harpy
			}
		}
	}

	custom_desc = {
		desc = estate_harpy_merchants_desc
		trigger = {
			or = {
				culture = firanyan_harpy
				culture = siadunan_harpy
			}
		}
	}
	#Lingyuk
	custom_name = {
		desc = estate_burghers_peasant_traders
		trigger = {
			mission_completed = Y26_light_is_the_cherry_blossom
		}
	}
	custom_name = {
		desc = estate_merchant_guilds
		trigger = {
			always = yes # was always true for anbennar anyway, fallback
			#NOT = { religion_group = christian } #Diversify a bit more.
			NOT = {
				culture_group = ynnic_ruinborn_elf
				culture = sarnik
			}
		}
	}
	custom_name = {
		desc = estate_peasants
		trigger = {
			tag = Y17 #Gushuokguan
		}
	}
	

	# custom_name = {
	# 	desc = estate_quartersmasters
	# 	trigger = {
	# 		has_government_attribute = is_pirate_republic_reform
	# 	}
	# }
	# custom_name = {
	# 	desc = estate_bourgeoisie
	# 	trigger = {
	# 		culture_group = french
	# 	}
	# }
	# custom_name = {
	# 	desc = estate_shangbang
	# 	trigger = {
	# 		culture_group = east_asian
	# 	}
	# }
	# custom_name = {
	# 	desc = estate_pochteca
	# 	trigger = {
	# 		religion = nahuatl
	# 	}
	# }
	# custom_name = {
	# 	desc = estate_merchant_guilds
	# 	trigger = {
	# 		OR = {	#Just like "NOT = { religion_group = Christian }", but at least it doesn't override estate names for new religion groups
	# 			#Still needs more diversity
	# 			religion_group = muslim
	# 			religion_group = eastern
	# 			religion_group = dharmic
	# 			religion_group = pagan
	# 			religion_group = jewish_group
	# 			religion_group = zoroastrian_group
	# 		}
	# 	}
	# }

	color = { 35 35 150 }

	privileges = {
		estate_burghers_land_rights
		estate_burghers_land_of_commerce
		estate_burghers_admirals
		estate_burghers_patronage_of_the_arts
		estate_burghers_land_trade_rights
		estate_burghers_commercial_board_of_advice
		estate_burghers_new_world_charter
		estate_burghers_indebted_to_burghers
		estate_burghers_free_enterprise
		estate_burghers_the_great_privilege
		estate_burghers_exclusive_trade_rights
		estate_burghers_control_over_monetary_policy
		estate_burghers_private_trade_fleets
		# estate_burghers_khmer_irrigation
		# estate_burghers_tropical_nation
		estate_burghers_monopoly_of_textiles
		estate_burghers_monopoly_of_dyes
		estate_burghers_monopoly_of_glass
		estate_burghers_monopoly_of_paper
		estate_burghers_enforced_interfaith_dialogue
		# estate_burghers_prussian_confederation # Unused
		estate_burghers_statutory_rights
		estate_burghers_orang_laut_alliances
		estate_burghers_control_over_the_mint
		estate_burghers_hydraulic_rights
		estate_burghers_forest_expansion
		estate_burghers_mountain_expansion
		# estate_burghers_orthodox_tolerance
		# estate_burghers_polish_merchant_seal
		# estate_burghers_rise_of_the_burghers
		estate_burghers_the_new_middle_class
		estate_burghers_autonomous_trade_companies
		estate_burghers_development_of_cities
		estate_burghers_control_over_the_coinage
		estate_burghers_economical_boost
		estate_burghers_force_impressment
		estate_burghers_naval_school_right
		estate_burghers_expanded_monopoly_rights
		estate_burghers_financial_demand
		estate_burghers_sindicat_remensa_privilege
		estate_burghers_promote_burgher_bookkeeping
		#1.36
		#estate_burghers_great_works_of_iran
		#estate_burghers_fund_karimi
		#estate_burghers_foreign_expeditions
		#estate_burghers_nile_goods_transport
		#estate_burghers_monopoly_of_coffee
		#estate_burghers_reliance_on_republics
		#estate_burghers_exkousseiai_for_latins
		#estate_burghers_BYZ_single_market
		#estate_burghers_ARB_oasis_development
		#estate_burghers_YEM_coffee_monopoly
		#estate_burghers_persian_rugs

		estate_burghers_magnate_council # Anbennar
		estate_burghers_yangban # Anbennar
		estate_burghers_sgc_merchant_training # Anbennar
		estate_burghers_sgc_foreign_power # Anbennar
		estate_burghers_sgc_advanced_wagons # Anbennar
		estate_burghers_merchant_spies # Anbennar Orlghelovar MT
		estate_burghers_matriarch_autonomy # Anbennar Mulen MT
		estate_burghers_rudmen_traders # Anbennar Freemarches MT
		estate_burghers_vazhatun_fund_research # Anbennar
		estate_burghers_glozok_the_cunning # Mountainshark MT
		estate_burghers_glozok_the_mastermind # Mountainshark MT
		estate_burghers_glozok_the_dominator # Mountainshark MT
		estate_burghers_sponsor_new_ships # Anbennar Bosancovac MT
		estate_burghers_improved_supply_routes # Gronstunad MT
		estate_burghers_brelari_dam_architects #Brelar MT
		estate_burghers_architect_sponsoring	#Breluslad MT
		estate_burghers_innovator_invitations
		estate_burghers_peasant_traders	#Lingyuk MT
		
		estate_burghers_steam_barons_industry                   # Gor Burad MT
		estate_burghers_steam_barons_sponsorship_of_borborduz   # Gor Burad MT
		estate_burghers_steam_barons_industry_encouraged        # Gor Burad MT
		estate_burghers_steam_barons_suppressing_the_mages      # Gor Burad MT
		estate_burghers_steam_barons_suppressing_the_artificers # Gor Burad MT
		estate_burghers_steam_barons_isolationism_enforced      # Gor Burad MT
		estate_burghers_steam_barons_poach_barony_engineers     # Gor Burad MT
		estate_burghers_steam_barons_on_monarchs_council        # Gor Burad MT
		estate_burghers_steam_barons_independent_governance     # Gor Burad MT
		
		estate_burghers_slaver_independent_trading # Empkeios MT
		estate_burghers_empkeios_slaver_guilds # Empkeios MT
		
		estate_burghers_nahisabate_system	#Crathanor MT
		estate_burghers_nahisabate_system_upgrade	#Crathanor MT

		estate_burghers_the_gromdhal_guild 		# Arg-Ordstun MT
		estate_burghers_gem_quarrying 			# Arg-Ordstun MT
		estate_burghers_lucrative_lapidaries	# Arg-Ordstun MT

		estate_burghers_multiracial_crop_rotation #Skewered Drake MT
		estate_burghers_drakon_caravans #skewered Drake MT
		
		estate_burghers_exwes_leading_naval_supplier #Exwes MT

		estate_burghers_merchants_of_narasad # Karassk
		estate_burghers_war_of_colours_treacherous_gold # Khugra
		estate_burghers_nazhyn_wars # Nazhni
		estate_burghers_the_council_of_ignorance # Yassa
		estate_burghers_city_in_ruins # Shalazar
		estate_burghers_karakhanbar_cooperation_with_goblin_cartels #Karakhanbar MT
		estate_burghers_subsidiary_cartels #Brambleskinner

		#Mutation Privileges
		estate_burghers_ashhana_mutation
		estate_burghers_zganaga_mutation
		estate_burghers_tatashyahyts_mutation
		estate_burghers_duuma_mutation
		estate_burghers_khtashhana_mutation
		estate_burghers_tsyhyra_mutation
		estate_burghers_thanats_mutation

		estate_merchants_gnollish_caravans #duwarkani MT

		#Maghargma
		estate_burghers_friends_in_high_places

		estate_merchant_J52_nuzurbokh_argiculture_guild #Ikogshaantus MT
		
		#Arawkelin
		estate_burghers_great_merfolk_searout
	}

	agendas = {
		estate_burghers_develop_x
		estate_burghers_build_trade_building_in_y
		estate_burghers_build_port_building_in_y
		estate_burghers_build_production_building_in_y
		estate_burghers_build_university_in_y
		estate_burghers_build_manufactory_in_y
		estate_burghers_pay_off_loans
		estate_burghers_restore_republican_tradition
		estate_burghers_restore_currency
		estate_burghers_recovery_from_hyperinflation
		estate_burghers_increase_trade_power_in_X
		estate_burghers_access_sea
		estate_burghers_build_a_fleet
		estate_burghers_bigger_fleet_than_rival
		estate_burghers_improve_dip_rep
		estate_burghers_get_cash
		estate_burghers_discover_X_in_america
		estate_burghers_colonise_X
		estate_burghers_colonise_more_X
		estate_burghers_colonial_nation
		estate_burghers_expand_trade_company
		estate_burghers_trade_post_in_india
		estate_burghers_trade_post_in_malacca
		estate_burghers_trade_post_in_china
		estate_burghers_silk_trade
		estate_burghers_spice_trade
		estate_burghers_tea_trade
		estate_burghers_reduce_corruption
		estate_burghers_protect_against_piracy
		estate_burghers_hire_advisor
		estate_burghers_fire_advisor
	}

	influence_from_dev_modifier = 1.0
}
