namespace = flavour_khugra


# On the brink of collapse
country_event = {
	id = flavour_khugra.1
	title = flavour_khugra.1.t
	desc = flavour_khugra.1.d
	picture = COUNTRY_COLLAPSE_eventPicture
		 
	fire_only_once = yes
		 
	is_triggered_only = yes

	trigger = {
		tag = L70
	}
		
	option = {
		name = flavour_khugra.1.a
		ai_chance = { factor = 100 }
		custom_tooltip = war_of_colours_tt
		add_truce_with = L71
		add_truce_with = L95
		add_truce_with = L96
		L71 = {
			add_truce_with = L70
			country_event = { #Narrative event for neighbors
				id = flavour_khugra.2
				days = 1
			}
		}
		L95 = {
			add_truce_with = L70
			country_event = { #Narrative event for neighbors
				id = flavour_khugra.2
				days = 1
			}
		}
		L96 = {
			add_truce_with = L70
			country_event = { #Narrative event for neighbors
				id = flavour_khugra.2
				days = 1
			}
		}
	}
}

# On the brink of collapse - Others
country_event = {
	id = flavour_khugra.2
	title = flavour_khugra.2.t
	desc = flavour_khugra.2.d
	picture = COUNTRY_COLLAPSE_eventPicture
		 
	is_triggered_only = yes
		
	option = { # Wait and watch
		name = flavour_khugra.2.a
		ai_chance = { factor = 100 }
		custom_tooltip = war_of_colours_other_tt
	}
}

# Red Party Switches Allegiance
country_event = {
	id = flavour_khugra.3
	title = flavour_khugra.3.t
	desc = flavour_khugra.3.d
	picture = CIVIL_WAR_eventPicture
		 
	fire_only_once = yes
		 
	trigger = {
		tag = L70
		has_estate_privilege = estate_nobility_war_of_colours_defeated_red
		L68 = {
			NOT = { war_with = L96 }
			owns = 5898
		}
	}
		
	mean_time_to_happen = {
		days = 1
	}
		
	option = {
		name = flavour_khugra.3.a
		ai_chance = { factor = 100 }
		every_owned_province = {
			limit = {
				is_claim = L96
			}			
			remove_claim = L96
		}
		L68 = {
			country_event = { #Narrative event for neighbors
				id = flavour_khugra.2
				days = 1
			}
		}
		5903 = {
			add_permanent_claim = L68
		}
		5905 = {
			add_permanent_claim = L68
		}
		custom_tooltip = red_party_switches_allegiance_tt
		hidden_effect = {
			set_country_flag = khugra_war_of_colours_karassk_rules_red_party
		}
	}
}

# Khugra submits to us
country_event = {
	id = flavour_khugra.4
	title = flavour_khugra.4.t
	desc = flavour_khugra.4.d
	picture = GOOD_WITH_MONARCH_eventPicture
		 
	fire_only_once = yes
		 
	is_triggered_only = yes
		
	option = { # About time we put them into the fold
		name = flavour_khugra.4.a
		ai_chance = { factor = 100 }
		L70 = {
			every_owned_province = {
				remove_claim = ROOT
			}
		}
	}
}

# Khugra submits to others
country_event = {
	id = flavour_khugra.5
	title = flavour_khugra.5.t
	desc = flavour_khugra.5.d
	picture = BAD_WITH_MONARCH_eventPicture
		 
	fire_only_once = yes
		 
	is_triggered_only = yes
		
	option = { # At least we got our claims
		name = flavour_khugra.5.a
		ai_chance = { factor = 100 }
	}
}

# The Red Party takes action
country_event = {
	id = flavour_khugra.6
	title = flavour_khugra.6.t
	desc = flavour_khugra.6.d
	picture = VILLAGE_BURNING_eventPicture
		 
	fire_only_once = yes
	
	is_triggered_only = yes
		
	option = { 
		name = flavour_khugra.6.a
		if = {
			limit = {
				has_country_flag = khugra_war_of_colours_karassk_rules_red_party
			}
			random_owned_province = {
				spawn_rebels = {
					type = red_party
					size = 2
					friend = L68
				}
			}
			random_owned_province = {
				spawn_rebels = {
					type = red_party
					size = 2
					friend = L68
				}
			}
		}
		else = {
			random_owned_province = {
				spawn_rebels = {
					type = red_party
					size = 2
					friend = L96
				}
			}
			random_owned_province = {
				spawn_rebels = {
					type = red_party
					size = 2
					friend = L96
				}
			}
		}
		ai_chance = { factor = 100 }
	}
}

# The Green Party takes action
country_event = {
	id = flavour_khugra.7
	title = flavour_khugra.7.t
	desc = flavour_khugra.7.d
	picture = PRINCE_BISHOP_RESIGN_eventPicture
		 
	fire_only_once = yes
		 
	is_triggered_only = yes
		
	option = { 
		name = flavour_khugra.7.a
		random_owned_province = {
			spawn_rebels = {
				type = green_party
				size = 2
				friend = L95
			}
		}
		random_owned_province = {
			spawn_rebels = {
				type = green_party
				size = 2
				friend = L95
			}
		}
		ai_chance = { factor = 100 }
	}
}

# The Golden Party takes action 
country_event = {
	id = flavour_khugra.8
	title = flavour_khugra.8.t
	desc = flavour_khugra.8.d
	picture = DUTCH_SHIPS_PLUNDERING_eventPicture
		 
	fire_only_once = yes
		 
	is_triggered_only = yes
		
	option = {
		name = flavour_khugra.8.a
		random_owned_province = {
			spawn_rebels = {
				type = golden_party
				size = 2
				friend = L71
			}
		}
		random_owned_province = {
			spawn_rebels = {
				type = golden_party
				size = 2
				friend = L71
			}
		}
		ai_chance = { factor = 100 }
	}
}

# A Cornered Rat
country_event = {
	id = flavour_khugra.9
	title = flavour_khugra.9.t
	desc = flavour_khugra.9.d
	picture = VILLAGE_BURNING_eventPicture
		 
	fire_only_once = yes
	
	trigger = {
		OR = {
			has_estate_privilege = estate_church_war_of_colours_imperial_green 
			has_estate_privilege = estate_burghers_war_of_colours_treacherous_gold 
			has_estate_privilege = estate_nobility_war_of_colours_defeated_red 
		}
	}
		 
	is_triggered_only = yes
		
	option = { 
		name = flavour_khugra.9.a
		add_country_modifier = { 
			name = L70_treason_of_the_cornered_rat
			duration = 7300
		}
		custom_tooltip = treason_of_the_cornered_rat_tt
		if = {
			limit = {
				has_estate_privilege = estate_church_war_of_colours_imperial_green 
			}
			random_owned_province = {
				spawn_rebels = {
					type = green_party
					size = 3
					friend = L95
				}
			}
			random_owned_province = {
				spawn_rebels = {
					type = green_party
					size = 3
					friend = L95
				}
			}
		}
		else_if = {
			limit = {
				has_estate_privilege = estate_burghers_war_of_colours_treacherous_gold 
			}
			random_owned_province = {
				spawn_rebels = {
					type = golden_party
					size = 3
					friend = L71
				}
			}
			random_owned_province = {
				spawn_rebels = {
					type = golden_party
					size = 3
					friend = L71
				}
			}
		}
		else_if = {
			limit = {
				has_estate_privilege = estate_nobility_war_of_colours_defeated_red 
				has_country_flag = khugra_war_of_colours_karassk_rules_red_party
			}
			random_owned_province = {
				spawn_rebels = {
					type = red_party
					size = 3
					friend = L68
				}
			}
			random_owned_province = {
				spawn_rebels = {
					type = red_party
					size = 3
					friend = L68
				}
			}
		}
		else_if = {
			limit = {
				has_estate_privilege = estate_nobility_war_of_colours_defeated_red 
				NOT = { has_country_flag = khugra_war_of_colours_karassk_rules_red_party }
			}
			random_owned_province = {
				spawn_rebels = {
					type = red_party
					size = 3
					friend = L96
				}
			}
			random_owned_province = {
				spawn_rebels = {
					type = red_party
					size = 3
					friend = L96
				}
			}
		}			
		ai_chance = { factor = 100 }
	}
}


# Sapphire Party installed
country_event = {
	id = flavour_khugra.10
	title = flavour_khugra.10.t
	desc = flavour_khugra.10.d
	picture = GOOD_WITH_MONARCH_eventPicture
		 
		 
	is_triggered_only = yes
		
	option = {  
		name = flavour_khugra.10.a
		every_known_country = {
			limit = {
				has_country_flag = L70_sapphire_party_in_process
			}
			reverse_add_casus_belli = {
				target = ROOT
				type = cb_vassalize_mission
				months = 300
			}
			hidden_effect = {
				clr_country_flag = L70_sapphire_party_in_process
				set_country_flag = L70_sapphire_party_installed
			}
		}
		hidden_effect = {
			clr_country_flag = L70_sapphire_party_cooldown
			country_event = { 
				id = flavour_khugra.12
				days = 9155
			} 
		}
		custom_tooltip = L70_sapphire_party_installed_tt
		ai_chance = { factor = 100 }
	}
}

# Sapphire Party Succesful
country_event = {
	id = flavour_khugra.11
	title = flavour_khugra.11.t
	desc = flavour_khugra.11.d
	picture = GOOD_WITH_MONARCH_eventPicture
		 
	is_triggered_only = yes
		
	option = { # 
		name = flavour_khugra.11.a
		every_subject_country  = {
			limit = {
				has_country_flag = L70_sapphire_party_installed
			}
			add_country_modifier = { 
				name = L70_sapphire_party
				duration = -1
			}
			add_opinion = {
				who = ROOT
				modifier = L70_sapphire_party_opinion
			}
			reverse_add_opinion = {
				who = ROOT
				modifier = L70_sapphire_party_opinion
			}
			hidden_effect = {
				clr_country_flag = L70_sapphire_party_installed
			}
		}
		ai_chance = { factor = 100 }
	}
}

# Sapphire Party Failed
country_event = {
	id = flavour_khugra.12
	title = flavour_khugra.12.t
	desc = flavour_khugra.12.d
	picture = BAD_WITH_MONARCH_eventPicture
	
	is_triggered_only = yes
		 		 
	trigger = {
		tag = L70
		any_known_country = {
			has_country_flag = L70_sapphire_party_installed
			NOT = { 
				is_subject_of = ROOT 
				war_with = ROOT
			}
			ROOT = {
				NOT = {
					has_casus_belli = {
						type = cb_vassalize_mission
						target = PREV
					}
				}
			}
		}
	}
		
	option = { # 
		name = flavour_khugra.12.a
		every_known_country = {
			limit = {
				has_country_flag = L70_sapphire_party_installed
				NOT = { is_subject_of = ROOT }
				ROOT = {
					NOT = {
						has_casus_belli = {
							type = cb_vassalize_mission
							target = PREV
						}
					}
				}
			}
			hidden_effect = {
				clr_country_flag = L70_sapphire_party_installed
			}
		}
		add_prestige = -5
		ai_chance = { factor = 100 }
	}
}

# Fate of the Red Party
country_event = {
	id = flavour_khugra.13
	title = flavour_khugra.13.t
	desc = flavour_khugra.13.d
	picture = SIEGE_eventPicture
		 
	fire_only_once = yes
		 
	is_triggered_only = yes
		
	option = { # Purge
		name = flavour_khugra.13.a
		add_army_professionalism = 0.03
		remove_estate_privilege = estate_nobility_war_of_colours_defeated_red
		custom_tooltip  = killed_red_party_tt
		hidden_effect = {
			set_country_flag = khugra_purge_red
		}
		ai_chance = { factor = 1 }
	}
	option = { # Mercy
		name = flavour_khugra.13.b
		define_general = {
			shock = 3
			fire = 6
			manuever = 4
			siege = 3
			name = "Aethron Wavespear"
			trait = planetouched_commander_personality
		}
		remove_estate_privilege = estate_nobility_war_of_colours_defeated_red
		custom_tooltip  = forgave_red_party_tt
		hidden_effect = {
			set_country_flag = khugra_mercy_red
		}
		ai_chance = { factor = 1 }
	}
}

# Fate of the Green Party
country_event = {
	id = flavour_khugra.14
	title = flavour_khugra.14.t
	desc = flavour_khugra.14.d
	picture = muslimgfx_COUNTRY_COLLAPSE_eventPicture
		 
	fire_only_once = yes
		 
	is_triggered_only = yes
		
	option = { # Purge
		name = flavour_khugra.14.a
		add_stability_or_adm_power = yes
		add_prestige = 30
		remove_estate_privilege = estate_church_war_of_colours_imperial_green
		custom_tooltip  = killed_green_party_tt
		hidden_effect = {
			set_country_flag = khugra_purge_green
		}
		ai_chance = { factor = 1 }
	}
	option = { # Mercy
		name = flavour_khugra.14.b
		define_advisor = {
			type = court_mage
			name = "Alaka Wisenight"
			skill = 3
			culture = shagatyn_lizardfolk
			religion = anzalkatsa
			female = yes
			discount = yes
		}
		remove_estate_privilege = estate_church_war_of_colours_imperial_green
		custom_tooltip  = forgave_green_party_tt
		hidden_effect = {
			set_country_flag = khugra_mercy_green
		}
		ai_chance = { factor = 1 }
	}
}

# Fate of the Golden Party
country_event = {
	id = flavour_khugra.15
	title = flavour_khugra.15.t
	desc = flavour_khugra.15.d
	picture = FLAGSHIP_SUNK_eventPicture
		 
	fire_only_once = yes
		 
	is_triggered_only = yes
		
	option = { # Purge
		name = flavour_khugra.15.a
		add_treasury = 100
		remove_estate_privilege = estate_burghers_war_of_colours_treacherous_gold
		custom_tooltip  = killed_gold_party_tt
		hidden_effect = {
			set_country_flag = khugra_purge_gold
		}
		ai_chance = { factor = 1 }
	}
	option = { # Mercy
		name = flavour_khugra.15.b
		define_admiral = {
			shock = 4
			fire = 3
			manuever = 6
			siege = 3
			name = "Sarkat Pearlchaser"
		}
		remove_estate_privilege = estate_burghers_war_of_colours_treacherous_gold
		custom_tooltip  = forgave_gold_party_tt
		hidden_effect = {
			set_country_flag = khugra_mercy_gold
		}
		ai_chance = { factor = 1 }
	}
}

country_event = {
	id = flavour_khugra.16
	title = flavour_khugra.16.t
	desc = flavour_khugra.16.desc
	picture = BIG_STAR_IN_SKY_eventPicture
		 
	fire_only_once = yes
		 
	is_triggered_only = yes
		
	option = { # full purge
		trigger = {
			has_country_flag = khugra_purge_gold
			has_country_flag = khugra_purge_red
			has_country_flag = khugra_purge_green
		}
		name = flavour_khugra.16.a
		add_country_modifier = { 
			name = L70_triumph_of_the_sapphire_party_1
			duration = -1
		}
		ai_chance = { factor = 1 }
	}
	option = { # full mercy
		trigger = {
			has_country_flag = khugra_mercy_gold
			has_country_flag = khugra_mercy_green
			has_country_flag = khugra_mercy_red
		}
		name = flavour_khugra.16.b
		add_country_modifier = { 
			name = L70_triumph_of_the_sapphire_party_2
			duration = -1
		}
		ai_chance = { factor = 1 }
	}
	option = { #purge red and green, mercy gold
		trigger = {
			has_country_flag = khugra_mercy_gold
			has_country_flag = khugra_purge_green
			has_country_flag = khugra_purge_red
		}
		name = flavour_khugra.16.c
		add_country_modifier = { 
			name = L70_triumph_of_the_sapphire_party_3
			duration = -1
		}
		ai_chance = { factor = 1 }
	}
	option = { #purge red, mercy gold and green
		trigger = {
			has_country_flag = khugra_mercy_gold
			has_country_flag = khugra_mercy_green
			has_country_flag = khugra_purge_red
		}
		name = flavour_khugra.16.d
		add_country_modifier = { 
			name = L70_triumph_of_the_sapphire_party_4
			duration = -1
		}
		ai_chance = { factor = 1 }
	}
	option = { #purge green, mercy red and gold
		trigger = {
			has_country_flag = khugra_mercy_gold
			has_country_flag = khugra_purge_green
			has_country_flag = khugra_mercy_red
		}
		name = flavour_khugra.16.e
		add_country_modifier = { 
			name = L70_triumph_of_the_sapphire_party_5
			duration = -1
		}
		ai_chance = { factor = 1 }
	}
	option = { #purge gold, mercy red and green
		trigger = {
			has_country_flag = khugra_purge_gold
			has_country_flag = khugra_mercy_green
			has_country_flag = khugra_mercy_red
		}
		name = flavour_khugra.16.f
		add_country_modifier = { 
			name = L70_triumph_of_the_sapphire_party_6
			duration = -1
		}
		ai_chance = { factor = 1 }
	}
	option = { #purge red and gold, mercy green
		trigger = {
			has_country_flag = khugra_purge_gold
			has_country_flag = khugra_mercy_green
			has_country_flag = khugra_purge_red
		}
		name = flavour_khugra.16.g
		add_country_modifier = { 
			name = L70_triumph_of_the_sapphire_party_7
			duration = -1
		}
		ai_chance = { factor = 1 }
	}
	option = { #purge gold and green, mercy red
		trigger = {
			has_country_flag = khugra_purge_gold
			has_country_flag = khugra_purge_green
			has_country_flag = khugra_mercy_red
		}
		name = flavour_khugra.16.h
		add_country_modifier = { 
			name = L70_triumph_of_the_sapphire_party_8
			duration = -1
		}
		ai_chance = { factor = 1 }
	}
}

# A Festival Like None Before
country_event = {
	id = flavour_khugra.17
	title = flavour_khugra.17.t
	desc = flavour_khugra.17.d
	picture = LAKE_TREASURE_eventPicture
		 
	fire_only_once = yes
		 
	is_triggered_only = yes
		
	option = { 
		name = flavour_khugra.17.a
		add_adm_power = -100
		add_mil_power = -100
		add_dip_power = -100
		add_treasury = -1000
		add_stability_or_adm_power = yes
		add_stability_or_adm_power = yes
		add_government_reform = khugra_araizary_bond
		ai_chance = { factor = 1 }
	}
}

# The Tragedy of the Dry Coast
country_event = {
	id = flavour_khugra.18
	title = flavour_khugra.18.t
	desc = flavour_khugra.18.d
	picture = HUNTER_GATHERERS_eventPicture
		 
	fire_only_once = yes
		 
	is_triggered_only = yes
		
	option = { 
		name = flavour_khugra.18.a
		5914 = {
			add_ruinborn_minority_size_effect = yes
			add_ruinborn_minority_size_effect = yes
		}
		large_increase_of_ruinborn_tolerance_effect = yes
		add_country_modifier = { 
			name = L70_oonoi_cooperation
			duration = 7300
		}
		ai_chance = { factor = 1 }
	}
}

# To End the Age of Warlords
country_event = {
	id = flavour_khugra.19
	title = flavour_khugra.19.t
	desc = flavour_khugra.19.d
	picture = southamericagfx_ANGRY_MOB_eventPicture
		 
	fire_only_once = yes
		 
	is_triggered_only = yes
		
	option = { 
		name = flavour_khugra.19.a
		kalavend_region = { 
			add_permanent_claim = ROOT
		}
		hidden_effect = { 
			every_subject_country = { 
				every_owned_province = { 
					limit = {
						OR = {
							religion = gods_of_the_taychend
							religion = oren_nayiru
							religion = gods_of_the_taychend_reformed
						}
					}
					add_province_modifier = { 
						name = L70_enlightenment_by_force
						duration = -1  
					}
				}
			}
			every_owned_province = { 
				limit = {
					OR = {
						religion = gods_of_the_taychend
						religion = oren_nayiru
						religion = gods_of_the_taychend_reformed
					}
				}
				add_province_modifier = { 
					name = L70_enlightenment_by_force
					duration = -1  
				}
			}
		}
		custom_tooltip = L70_end_age_of_warlords_tt
		ai_chance = { factor = 1 }
	}
}

# Resplendent Sapphire
country_event = {
	id = flavour_khugra.20
	title = flavour_khugra.20.t
	desc = flavour_khugra.20.d
	picture = BIG_STAR_IN_SKY_eventPicture
		 
	fire_only_once = yes
		 
	is_triggered_only = yes
		
	option = { 
		name = flavour_khugra.20.a
		add_splendor = 1000
		add_country_modifier = { 
				name = L70_resplendent_sapphire
				duration = -1  
			}
		ai_chance = { factor = 1 }
	}
}

#Commune with Yusshela events

# Wise as a Whale
country_event = {
	id = flavour_khugra.21
	title = flavour_khugra.21.t
	desc = flavour_khugra.21.d
	picture = BIG_STAR_IN_SKY_eventPicture
		 
		 
	is_triggered_only = yes
		
	option = { 
		name = flavour_khugra.21.a
		change_adm = 1
		add_ruler_modifier = { 
			name = L70_wise_as_a_whale
			duration = -1  
		}
		ai_chance = { factor = 1 }
	}
}

#Cunning as an Octopus
country_event = {
	id = flavour_khugra.22
	title = flavour_khugra.22.t
	desc = flavour_khugra.22.d
	picture = BIG_STAR_IN_SKY_eventPicture
		 
	is_triggered_only = yes
		
	option = { 
		name = flavour_khugra.22.a
		change_adm = 1
		add_ruler_modifier = { 
			name = L70_cunning_as_an_octopus
			duration = -1  
		}
		ai_chance = { factor = 1 }
	}
}

#Fierce as a Shark
country_event = {
	id = flavour_khugra.23
	title = flavour_khugra.23.t
	desc = flavour_khugra.23.d
	picture = BIG_STAR_IN_SKY_eventPicture
		 
	is_triggered_only = yes
		
	option = { 
		name = flavour_khugra.23.a
		change_mil = 1
		add_ruler_modifier = { 
			name = L70_fierce_as_a_shark
			duration = -1  
		}
		ai_chance = { factor = 1 }
	}
}

#Sharp as a Swordfish
country_event = {
	id = flavour_khugra.24
	title = flavour_khugra.24.t
	desc = flavour_khugra.24.d
	picture = BIG_STAR_IN_SKY_eventPicture
		 
	is_triggered_only = yes
		
	option = { 
		name = flavour_khugra.24.a
		change_mil = 1
		add_ruler_modifier = { 
			name = L70_sharp_as_a_swordfish
			duration = -1  
		}
		ai_chance = { factor = 1 }
	}
}

#Beautiful as a Sea Turtle
country_event = {
	id = flavour_khugra.25
	title = flavour_khugra.25.t
	desc = flavour_khugra.25.d
	picture = BIG_STAR_IN_SKY_eventPicture
		 
	is_triggered_only = yes
		
	option = { 
		name = flavour_khugra.25.a
		change_dip = 1
		add_ruler_modifier = { 
			name = L70_beautiful_as_a_sea_turtle
			duration = -1  
		}
		ai_chance = { factor = 1 }
	}
}

#Charming as a Seal
country_event = {
	id = flavour_khugra.26
	title = flavour_khugra.26.t
	desc = flavour_khugra.26.d
	picture = BIG_STAR_IN_SKY_eventPicture
		 
	is_triggered_only = yes
		
	option = { 
		name = flavour_khugra.26.a
		change_dip = 1
		add_ruler_modifier = { 
			name = L70_charming_as_a_seal
			duration = -1  
		}
		ai_chance = { factor = 1 }
	}
}

#Great Journey Events
#Treasure Cove
country_event = {
	id = flavour_khugra.27
	title = flavour_khugra.27.t
	desc = flavour_khugra.27.d
	picture = LAKE_TREASURE_eventPicture
		 
	is_triggered_only = yes
		
	option = { 
		name = flavour_khugra.27.a
		hidden_effect = {
			clr_country_flag = araizary_doing_great_journey
			change_variable = {
				which = L70_completed_great_journeys
				value = 1
			}
		}
		5914 = {
			light_ship = ROOT
			light_ship = ROOT
			light_ship = ROOT
			light_ship = ROOT
			light_ship = ROOT
		}
		if = {
			limit = {
				monthly_income = 333
			}
			add_treasury = 2000
		}
		else = { 
			add_years_of_income = 0.5
		}
		ai_chance = { factor = 1 }
	}
}

#Sunken City
country_event = {
	id = flavour_khugra.28
	title = flavour_khugra.28.t
	desc = flavour_khugra.28.d
	picture = FAR_AND_WIDE_eventPicture
		 
	is_triggered_only = yes
		
	option = { 
		name = flavour_khugra.28.a
		hidden_effect = {
			clr_country_flag = araizary_doing_great_journey
			change_variable = {
				which = L70_completed_great_journeys
				value = 1
			}
		}
		5914 = {
			light_ship = ROOT
			light_ship = ROOT
			light_ship = ROOT
			light_ship = ROOT
			light_ship = ROOT
		}
		add_innovativeness_or_monarch_power_anb = { amount = 5 }
		add_prestige = 20
		ai_chance = { factor = 1 }
	}
}

#Stunning Coral Reef
country_event = {
	id = flavour_khugra.29
	title = flavour_khugra.29.t
	desc = flavour_khugra.29.d
	picture = SIERRA_DE_LA_PLATA_eventPicture
		 
	is_triggered_only = yes
		
	option = { 
		name = flavour_khugra.29.a
		hidden_effect = {
			clr_country_flag = araizary_doing_great_journey
			change_variable = {
				which = L70_completed_great_journeys
				value = 1
			}
		}
		5914 = {
			light_ship = ROOT
			light_ship = ROOT
			light_ship = ROOT
			light_ship = ROOT
			light_ship = ROOT
		}
		add_stability_or_adm_power = yes
		add_splendor = 200
		ai_chance = { factor = 1 }
	}
}

#Shipwrecked Cannorians
country_event = {
	id = flavour_khugra.30
	title = flavour_khugra.30.t
	desc = flavour_khugra.30.d
	picture = MERCHANTS_TALKING_eventPicture
		 
	is_triggered_only = yes
		
	option = { 
		name = flavour_khugra.30.a
		hidden_effect = {
			clr_country_flag = araizary_doing_great_journey
			change_variable = {
				which = L70_completed_great_journeys
				value = 1
			}
		}
		5914 = {
			light_ship = ROOT
			light_ship = ROOT
			light_ship = ROOT
			light_ship = ROOT
			light_ship = ROOT
			add_next_institution_embracement = 30
		}
		custom_tooltip = random_busilari_advisor_50_tt
		hidden_effect = {
			random_list = { # generates random busilari advisor 50% off
				#Adm
				1 = { define_advisor = { type = artist skill = 2 culture = busilari religion = regent_court cost_multiplier = 0.5 } }
				1 = { define_advisor = { type = inquisitor skill = 2 culture = busilari religion = regent_court cost_multiplier = 0.5 } }
				1 = { define_advisor = { type = master_of_mint skill = 2 culture = busilari religion = regent_court cost_multiplier = 0.5 } }
				1 = { define_advisor = { type = natural_scientist skill = 2 culture = busilari religion = regent_court cost_multiplier = 0.5 } }
				1 = { define_advisor = { type = philosopher skill = 2 culture = busilari religion = regent_court cost_multiplier = 0.5 } }
				1 = { define_advisor = { type = theologian skill = 2 culture = busilari religion = regent_court cost_multiplier = 0.5 } }
				1 = { define_advisor = { type = treasurer skill = 2 culture = busilari religion = regent_court cost_multiplier = 0.5 } }
				1 = { define_advisor = { type = court_mage skill = 2 culture = busilari religion = regent_court cost_multiplier = 0.5 } }
				#Dip
				1 = { define_advisor = { type = colonial_governor skill = 2 culture = busilari religion = regent_court cost_multiplier = 0.5 } }
				1 = { define_advisor = { type = diplomat skill = 2 culture = busilari religion = regent_court cost_multiplier = 0.5 } }
				1 = { define_advisor = { type = naval_reformer skill = 2 culture = busilari religion = regent_court cost_multiplier = 0.5 } }
				1 = { define_advisor = { type = navigator skill = 2 culture = busilari religion = regent_court cost_multiplier = 0.5 } }
				1 = { define_advisor = { type = spymaster skill = 2 culture = busilari religion = regent_court cost_multiplier = 0.5 } }
				1 = { define_advisor = { type = statesman skill = 2 culture = busilari religion = regent_court cost_multiplier = 0.5 } }
				1 = { define_advisor = { type = trader skill = 2 culture = busilari religion = regent_court cost_multiplier = 0.5 } }
				#Mil
				1 = { define_advisor = { type = army_organiser skill = 2 culture = busilari religion = regent_court cost_multiplier = 0.5 } }
				1 = { define_advisor = { type = army_reformer skill = 2 culture = busilari religion = regent_court cost_multiplier = 0.5 } }
				1 = { define_advisor = { type = commandant skill = 2 culture = busilari religion = regent_court cost_multiplier = 0.5 } }
				1 = { define_advisor = { type = grand_captain skill = 2 culture = busilari religion = regent_court cost_multiplier = 0.5 } }
				1 = { define_advisor = { type = recruitmaster skill = 2 culture = busilari religion = regent_court cost_multiplier = 0.5 } }
				1 = { define_advisor = { type = fortification_expert skill = 2 culture = busilari religion = regent_court cost_multiplier = 0.5 } }
				1 = { define_advisor = { type = quartermaster skill = 2 culture = busilari religion = regent_court cost_multiplier = 0.5 } }
			}
		}
		ai_chance = { factor = 1 }
	}
}

#terrible sea monster
country_event = {
	id = flavour_khugra.31
	title = flavour_khugra.31.t
	desc = flavour_khugra.31.d
	picture = BARBARY_PIRATES_eventPicture
		 
	is_triggered_only = yes
		
	option = { 
		name = flavour_khugra.31.a
		hidden_effect = {
			clr_country_flag = araizary_doing_great_journey
			change_variable = {
				which = L70_completed_great_journeys
				value = 1
			}
		}
		5914 = {
			light_ship = ROOT
		}
		add_stability = -1
		ai_chance = { factor = 1 }
	}
}

#Nothing of value
country_event = {
	id = flavour_khugra.32
	title = flavour_khugra.32.t
	desc = flavour_khugra.32.d
	picture = COASTLINE_MAP_eventPicture
		 
	is_triggered_only = yes
		
	option = { 
		name = flavour_khugra.32.a
		hidden_effect = {
			clr_country_flag = araizary_doing_great_journey
			change_variable = {
				which = L70_completed_great_journeys
				value = 1
			}
		}
		5914 = {
			light_ship = ROOT
			light_ship = ROOT
			light_ship = ROOT
			light_ship = ROOT
			light_ship = ROOT
		}
		add_prestige = -10
		ai_chance = { factor = 1 }
	}
}

#mysterious island
country_event = {
	id = flavour_khugra.33
	title = flavour_khugra.33.t
	desc = flavour_khugra.33.d
	picture = EP_ISLAND_eventPicture
		 
	is_triggered_only = yes
		
	option = { 
		name = flavour_khugra.33.a
		hidden_effect = {
			clr_country_flag = araizary_doing_great_journey
			change_variable = {
				which = L70_completed_great_journeys
				value = 1
			}
		}
		5914 = {
			light_ship = ROOT
			light_ship = ROOT
		}
		add_adm_power = 50
		add_dip_power = 50
		add_mil_power = 50
		add_stability = -1
		ai_chance = { factor = 1 }
	}
}

#bizarre encounter
country_event = {
	id = flavour_khugra.34
	title = flavour_khugra.34.t
	desc = flavour_khugra.34.d
	picture = TRIBUTARY_FLEET_eventPicture
		 
	is_triggered_only = yes
		
	option = { 
		name = flavour_khugra.34.a
		hidden_effect = {
			clr_country_flag = araizary_doing_great_journey
			change_variable = {
				which = L70_completed_great_journeys
				value = 1
			}
		}
		5914 = {
			light_ship = ROOT
			light_ship = ROOT
			light_ship = ROOT
			light_ship = ROOT
			light_ship = ROOT
			light_ship = ROOT
			light_ship = ROOT
			light_ship = ROOT
			light_ship = ROOT
			light_ship = ROOT
		}
		add_sailors = 2000
		ai_chance = { factor = 1 }
	}
}

#not their fate
country_event = {
	id = flavour_khugra.35
	title = flavour_khugra.35.t
	desc = flavour_khugra.35.d
	picture = BYZ_BAD_WITH_MONARCH_eventPicture
		 
	is_triggered_only = yes
		
	option = { 
		name = flavour_khugra.35.a
		hidden_effect = {
			clr_country_flag = araizary_doing_great_journey
			change_variable = {
				which = L70_completed_great_journeys
				value = 1
			}
		}
		add_legitimacy = -15
		ai_chance = { factor = 1 }
	}
}

#ancient magical relic
country_event = {
	id = flavour_khugra.36
	title = flavour_khugra.36.t
	desc = flavour_khugra.36.d
	picture = INCAN_GODS_eventPicture
		 
	is_triggered_only = yes
		
	option = { 
		name = flavour_khugra.36.a
		hidden_effect = {
			clr_country_flag = araizary_doing_great_journey
			change_variable = {
				which = L70_completed_great_journeys
				value = 1
			}
		}
		5914 = {
			light_ship = ROOT
			light_ship = ROOT
			light_ship = ROOT
			light_ship = ROOT
		}
		add_estate_loyalty = {
			estate = estate_mages
			loyalty = 20
		}
		add_estate_influence_modifier = {
			estate = estate_mages
			desc = ESTATE_L70_KHUGRA_ARAIZARY_BOOST
			influence = 20
			duration = 7300
		}
		ai_chance = { factor = 1 }
	}
	option = { 
		trigger = {
			has_estate = estate_artificers
		}
		name = flavour_khugra.36.b
		hidden_effect = {
			clr_country_flag = araizary_doing_great_journey
			change_variable = {
				which = L70_completed_great_journeys
				value = 1
			}
		}
		5914 = {
			light_ship = ROOT
			light_ship = ROOT
			light_ship = ROOT
			light_ship = ROOT
		}
		add_estate_loyalty = {
			estate = estate_artificers
			loyalty = 20
		}
		add_estate_influence_modifier = {
			estate = estate_artificers
			desc = ESTATE_L70_KHUGRA_ARAIZARY_BOOST
			influence = 20
			duration = 7300
		}
		ai_chance = { factor = 1 }
	}
	option = { 
		trigger = {
			has_ruler_modifier = ruler_studying_magic
		}
		name = flavour_khugra.36.c
		hidden_effect = {
			clr_country_flag = araizary_doing_great_journey
			change_variable = {
				which = L70_completed_great_journeys
				value = 1
			}
		}
		5914 = {
			light_ship = ROOT
			light_ship = ROOT
			light_ship = ROOT
			light_ship = ROOT
		}
		increase_study_experience = { experience = 400 }
		ai_chance = { factor = 1 }
	}
}

#random araizary events

#ancient ship washed to shore
country_event = {
	id = flavour_khugra.37
	title = flavour_khugra.37.t
	desc = flavour_khugra.37.d
	picture = SHIP_SAILING_eventPicture
		 
	is_triggered_only = yes
	trigger = {
		has_reform = khugra_araizary_bond
		any_owned_province = {
			has_port = yes
		}
	}
		
	option = { 
		name = flavour_khugra.37.a
		if = {
			limit = {
				monthly_income = 250
			}
			add_treasury = 1000
		}
		else = { 
			add_years_of_income = 0.3
		}
		random_owned_province = {
			limit = { has_port = yes }
			heavy_ship = ROOT
		}
		ai_chance = { factor = 1 }
	}
}

#food from the waves
country_event = {
	id = flavour_khugra.38
	title = flavour_khugra.38.t
	desc = flavour_khugra.38.d
	picture = muslimgfx_FEAST_eventPicture
		 
	is_triggered_only = yes
	trigger = {
		has_reform = khugra_araizary_bond
		any_owned_province = {
			has_port = yes
		}
	}
		
	option = { 
		name = flavour_khugra.38.a
		random_owned_province = {
			limit = { has_port = yes }
			add_base_manpower = 1
		}
		random_owned_province = {
			limit = { has_port = yes }
			add_base_manpower = 1
		}
		random_owned_province = {
			limit = { has_port = yes }
			add_base_manpower = 1
		}
		ai_chance = { factor = 1 }
	}
}

#divine construction
country_event = {
	id = flavour_khugra.39
	title = flavour_khugra.39.t
	desc = flavour_khugra.39.d
	picture = LARGE_SHIPYARD_eventPicture
		 
	is_triggered_only = yes
	trigger = {
		has_reform = khugra_araizary_bond
		any_owned_province = {
			has_port = yes
			NOT = { has_building = grand_shipyard }
		}
	}
		
	option = { 
		name = flavour_khugra.39.a
		random_owned_province = {
			limit = { 
				has_port = yes 
				NOT = { has_building = grand_shipyard }
			}
			if = {
				limit = { 
					has_port = yes 
					has_building = shipyard 
				}
				add_building_construction = {
					building = grand_shipyard
					speed = 1
					cost = 0
				}
			}
			else = {
				add_building_construction = {
					building = shipyard
					speed = 1
					cost = 0
				}
				add_base_production = 1
			}
		}
		ai_chance = { factor = 1 }
	}
}

#blessed waves, blessed winds
country_event = {
	id = flavour_khugra.40
	title = flavour_khugra.40.t
	desc = flavour_khugra.40.d
	picture = muslimgfx_FORT_eventPicture
		 
	is_triggered_only = yes
	trigger = {
		has_reform = khugra_araizary_bond
		any_owned_province = {
			has_port = yes
		}
	}
		
	option = { 
		name = flavour_khugra.40.a
		add_stability_or_adm_power = yes
		custom_tooltip = blessed_waves_blessed_winds_tt
		hidden_effect = { 
			every_owned_province = { 
				limit = { 
					has_port = yes 
				}
				add_nationalism = -5
				add_local_autonomy = -10
			}
		}
		ai_chance = { factor = 1 }
	}
}

#a lizard from the depths
country_event = {
	id = flavour_khugra.41
	title = flavour_khugra.41.t
	desc = flavour_khugra.41.d
	picture = EP_MANIHOLE_HELMET_eventPicture
		 
	is_triggered_only = yes
	trigger = {
		has_reform = khugra_araizary_bond
		any_owned_province = {
			has_port = yes
		}
	}
		
	option = { 
		name = flavour_khugra.41.a
		create_admiral = { 
			tradition = 80 
			add_shock = 1
			add_manuever = 2
		}
		ai_chance = { factor = 1 }
	}
	
	option = { 
		name = flavour_khugra.41.b
		define_general = {
			fire = 3
			shock = 5
			manuever = 4
			siege = 1
			trait = planetouched_commander_personality
		}
		ai_chance = { factor = 1 }
	}
}

#magical desalinization
country_event = {
	id = flavour_khugra.42
	title = flavour_khugra.42.t
	desc = flavour_khugra.42.d
	picture = indiangfx_CITY_VIEW_eventPicture
		 
	is_triggered_only = yes
	trigger = {
		has_reform = khugra_araizary_bond
		any_owned_province = {
			has_port = yes
			NOT  = { is_prosperous = yes }
			is_state_core = ROOT
		}
	}
		
	option = { 
		name = flavour_khugra.42.a
		random_owned_province = { 
			limit = { 
				has_port = yes
				NOT  = { is_prosperous = yes }
				is_state_core = ROOT
			}
			every_province_in_state = { 
				add_prosperity = 100
				add_devastation = -100
			}
		}
		ai_chance = { factor = 1 }
	}
}

#ancient secrets uncovered
country_event = {
	id = flavour_khugra.43
	title = flavour_khugra.43.t
	desc = flavour_khugra.43.d
	picture = LAKE_TREASURE_eventPicture
		 
	is_triggered_only = yes
	trigger = {
		has_reform = khugra_araizary_bond
		any_owned_province = {
			has_port = yes
		}
	}
		
	option = { 
		name = flavour_khugra.43.a
		add_innovativeness_or_monarch_power_anb = { amount = 2 }
		ai_chance = { factor = 1 }
	}
}

#Sage of the waves
country_event = {
	id = flavour_khugra.44
	title = flavour_khugra.44.t
	desc = flavour_khugra.44.d
	picture = BIG_BOOK_eventPicture
		 
	is_triggered_only = yes
	trigger = {
		has_reform = khugra_araizary_bond
		any_owned_province = {
			has_port = yes
		}
	}
		
	option = { 
		name = flavour_khugra.44.a
		define_advisor = {
			type = court_mage
			skill = 3
			cost_multiplier = 0.5
		}
		ai_chance = { factor = 1 }
	}
}

#random events manager
country_event = {
	id = flavour_khugra.45
	title = flavour_khugra.45.t
	desc = flavour_khugra.45.d
	picture = BLANK_eventPicture
		 
	is_triggered_only = yes
	trigger = {
		has_reform = khugra_araizary_bond
		any_owned_province = {
			has_port = yes
		}
	}
	hidden = yes
		
	option = { 
		name = flavour_khugra.45.a
		if = {
			limit = {
				NOT = {
					has_government_power = {
						mechanic_type = khugra_araizary_affinity_mechanic
						power_type = khugra_araizary_affinity_power
						value = 25
					}
				}
			}
			random_list = { #picks the event that trigger
				68 = { add_prestige = 1 }
				3 = { country_event = { id = flavour_khugra.37 } }
				3 = { country_event = { id = flavour_khugra.38 } }
				3 = { country_event = { id = flavour_khugra.39 } }
				3 = { country_event = { id = flavour_khugra.40 } }
				3 = { country_event = { id = flavour_khugra.41 } }
				3 = { country_event = { id = flavour_khugra.42 } }
				3 = { country_event = { id = flavour_khugra.43 } }
				3 = { country_event = { id = flavour_khugra.44 } }
			}
		}
		else_if = {
			limit = {
				has_government_power = {
					mechanic_type = khugra_araizary_affinity_mechanic
					power_type = khugra_araizary_affinity_power
					value = 25
				}
				NOT = {
					has_government_power = {
						mechanic_type = khugra_araizary_affinity_mechanic
						power_type = khugra_araizary_affinity_power
						value = 50
					}
				}
			}
			random_list = { #picks the event that trigger
				52 = { add_prestige = 1 }
				6 = { country_event = { id = flavour_khugra.37 } }
				6 = { country_event = { id = flavour_khugra.38 } }
				6 = { country_event = { id = flavour_khugra.39 } }
				6 = { country_event = { id = flavour_khugra.40 } }
				6 = { country_event = { id = flavour_khugra.41 } }
				6 = { country_event = { id = flavour_khugra.42 } }
				6 = { country_event = { id = flavour_khugra.43 } }
				6 = { country_event = { id = flavour_khugra.44 } }
			}
		}
		else_if = {
			limit = {
				has_government_power = {
					mechanic_type = khugra_araizary_affinity_mechanic
					power_type = khugra_araizary_affinity_power
					value = 50
				}
				NOT = {
					has_government_power = {
						mechanic_type = khugra_araizary_affinity_mechanic
						power_type = khugra_araizary_affinity_power
						value = 75
					}
				}
			}
			random_list = { #picks the event that trigger
				28 = { add_prestige = 1 }
				9 = { country_event = { id = flavour_khugra.37 } }
				9 = { country_event = { id = flavour_khugra.38 } }
				9 = { country_event = { id = flavour_khugra.39 } }
				9 = { country_event = { id = flavour_khugra.40 } }
				9 = { country_event = { id = flavour_khugra.41 } }
				9 = { country_event = { id = flavour_khugra.42 } }
				9 = { country_event = { id = flavour_khugra.43 } }
				9 = { country_event = { id = flavour_khugra.44 } }
			}
		}
		else = {
			random_list = { #picks the event that trigger
				12 = { add_prestige = 1 }
				11 = { country_event = { id = flavour_khugra.37 } }
				11 = { country_event = { id = flavour_khugra.38 } }
				11 = { country_event = { id = flavour_khugra.39 } }
				11 = { country_event = { id = flavour_khugra.40 } }
				11 = { country_event = { id = flavour_khugra.41 } }
				11 = { country_event = { id = flavour_khugra.42 } }
				11 = { country_event = { id = flavour_khugra.43 } }
				11 = { country_event = { id = flavour_khugra.44 } }
			}
		}
		ai_chance = { factor = 1 }
	}
}

#Great Festival
country_event = {
	id = flavour_khugra.46
	title = flavour_khugra.46.t
	desc = flavour_khugra.46.d
	picture = LAKE_TREASURE_eventPicture
		 
	is_triggered_only = yes
		
	option = { 
		name = flavour_khugra.46.a
		add_treasury = -300
		add_adm_power = -25
		add_mil_power = -25
		add_dip_power = -25
		add_government_power = {
			mechanic_type = khugra_araizary_affinity_mechanic
			power_type = khugra_araizary_affinity_power
			value = 25
		}
		ai_chance = { factor = 1 }
	}
}

#What they are looking for
country_event = {
	id = flavour_khugra.47
	title = flavour_khugra.47.t
	desc = flavour_khugra.47.d
	picture = DHOW_AT_SEA_eventPicture
		 
	is_triggered_only = yes
		
	option = { 
		name = flavour_khugra.47.a
		set_country_flag = improved_great_journey
		add_country_modifier = { 
			name = L70_the_ancient_search
			duration = -1
		}
		add_government_power = {
			mechanic_type = khugra_araizary_affinity_mechanic
			power_type = khugra_araizary_affinity_power
			value = 20
		}
		ai_chance = { factor = 1 }
	}
}

#Bittersweet failure
country_event = {
	id = flavour_khugra.48
	title = flavour_khugra.48.t
	desc = flavour_khugra.48.d
	picture = indiangfx_SHIP_SAILING_eventPicture
		 
	is_triggered_only = yes
		
	option = { 
		name = flavour_khugra.48.a
		add_treasury = 3000
		add_adm_power = 200
		add_mil_power = 200
		add_dip_power = 200
		remove_country_modifier = L70_the_ancient_search
		add_country_modifier = { 
			name = L70_faith_in_our_goddess
			duration = -1
		}
		ai_chance = { factor = 1 }
	}
}

country_event = {
	id = flavour_khugra.49
	title = flavour_khugra.49.t
	desc = flavour_khugra.49.desc
	picture = BIG_STAR_IN_SKY_eventPicture
		 
	is_triggered_only = yes
		
	option = { #green party
		trigger = {
			exists = L95
			has_estate_privilege = estate_church_war_of_colours_imperial_green
		}
		name = flavour_khugra.49.a
		L95 = {
				vassalize = L70
			}
			if = {
				limit = { 
					has_estate_privilege = estate_burghers_war_of_colours_treacherous_gold 
					exists = L71
				}
				every_owned_province = {
					limit = {
						is_permanent_claim = L71
					}
					cede_province = L71
				}
				remove_estate_privilege = estate_burghers_war_of_colours_treacherous_gold
			}
			if = {
				limit = { 
					has_estate_privilege = estate_nobility_war_of_colours_defeated_red 
					exists = L96
					NOT = { has_country_flag = khugra_war_of_colours_karassk_rules_red_party }
				}
				every_owned_province = {
					limit = {
						is_permanent_claim = L96
					}
					cede_province = L96
				}
				remove_estate_privilege = estate_nobility_war_of_colours_defeated_red
			}
			if = {
				limit = { 
					has_estate_privilege = estate_nobility_war_of_colours_defeated_red 
					exists = L68
					has_country_flag = khugra_war_of_colours_karassk_rules_red_party
				}
				every_owned_province = {
					limit = {
						is_permanent_claim = L68
					}
					cede_province = L68
				}
				remove_estate_privilege = estate_nobility_war_of_colours_defeated_red
			}
			set_country_flag = khugra_war_of_colours_culminates
		ai_chance = { factor = 1 }
	}
	option = { #golden party
		trigger = {
			exists = L71
			has_estate_privilege = estate_burghers_war_of_colours_treacherous_gold
		}
		name = flavour_khugra.49.b
		L71 = {
				vassalize = L70
				
			}
			if = {
				limit = { 
					has_estate_privilege = estate_church_war_of_colours_imperial_green 
					exists = L95
				}
				every_owned_province = {
					limit = {
						is_permanent_claim = L95
					}
					cede_province = L95
				}
				remove_estate_privilege = estate_church_war_of_colours_imperial_green
			}
			if = {
				limit = { 
					has_estate_privilege = estate_nobility_war_of_colours_defeated_red 
					exists = L96
					NOT = { has_country_flag = khugra_war_of_colours_karassk_rules_red_party }
				}
				every_owned_province = {
					limit = {
						is_permanent_claim = L96
					}
					cede_province = L96
				}
				remove_estate_privilege = estate_nobility_war_of_colours_defeated_red
			}
			if = {
				limit = { 
					has_estate_privilege = estate_nobility_war_of_colours_defeated_red 
					exists = L68
					has_country_flag = khugra_war_of_colours_karassk_rules_red_party
				}
				every_owned_province = {
					limit = {
						is_permanent_claim = L68
					}
					cede_province = L68
				}
				remove_estate_privilege = estate_nobility_war_of_colours_defeated_red
			}
			set_country_flag = khugra_war_of_colours_culminates
		ai_chance = { factor = 1 }
	}
	option = { #red party
		trigger = {
			OR = {
				AND = {
					exists = L96
					OR = {
						L96 = { owns = 5898 }
						ai = no
					}
					NOT = { has_country_flag = khugra_war_of_colours_karassk_rules_red_party }
				}
				AND = {
					exists = L68
					OR = {
						L68 = { owns = 5898 }
						ai = no
					}
					has_country_flag = khugra_war_of_colours_karassk_rules_red_party
				}
			}
			has_estate_privilege = estate_nobility_war_of_colours_defeated_red
		}
		name = flavour_khugra.49.c
		if = {
				limit = { 
					NOT = { has_country_flag = khugra_war_of_colours_karassk_rules_red_party }
				}
				L96 = {
					vassalize = L70
				}
			}
			if = {
				limit = { 
					has_country_flag = khugra_war_of_colours_karassk_rules_red_party
				}
				L68 = {
					vassalize = L70
				}
			}
			if = {
				limit = { 
					has_estate_privilege = estate_church_war_of_colours_imperial_green 
					exists = L95
				}
				every_owned_province = {
					limit = {
						is_permanent_claim = L95
					}
					cede_province = L95
				}
				remove_estate_privilege = estate_church_war_of_colours_imperial_green
			}
			if = {
				limit = { 
					has_estate_privilege = estate_burghers_war_of_colours_treacherous_gold 
					exists = L71
				}
				every_owned_province = {
					limit = {
						is_permanent_claim = L71
					}
					cede_province = L71
				}
				remove_estate_privilege = estate_burghers_war_of_colours_treacherous_gold
			}
			set_country_flag = khugra_war_of_colours_culminates
		ai_chance = { factor = 1 }
	}
	option = { #remain independent
		trigger = {
			ai = no
		}
		name = flavour_khugra.49.e
		ai_chance = { factor = 1 }
	}
}